COMP529 Big Data Analytics: CA2 (PCA Assignment)
…
Remember:
return = (price_t - price_{t-1}) / price_{t-1}

The first row of returns will be NA for every stock.
slice() may be useful.

# YOUR CODE GOES HERE
returns_df <- wide_df %>%  mutate(    across(      .cols = -Date,      .fns  = ~ ( . - lag(.) ) / lag(.)    )  )
returns_df <- returns_df %>%  slice(-1)
print(returns_df)

## # A tibble: 754 × 491
##    Date               A      AAPL     ABBV      ABT      ACGL      ACN      ADBE
##    <date>         <dbl>     <dbl>    <dbl>    <dbl>     <dbl>    <dbl>     <dbl>
##  1 2019-11-04  0.00537   0.0250    0.0380  -0.00472 -0.0121    0.00688  -4.40e-3
##  2 2019-11-05 -0.0164    0.00368  -0.00816 -0.0161  -0.0152   -0.0102    2.74e-2
##  3 2019-11-06 -0.00702  -0.00371  -0.0137   0.0183   0.00994   0.00771   7.09e-3
##  4 2019-11-07  0.00987   0.0107    0.00909  0.00643 -0.00517   0.00942   4.87e-3
##  5 2019-11-08 -0.000396 -0.00487   0.0125   0.00326 -0.00272  -0.00212   5.16e-3
##  6 2019-11-11  0.00635   0.00556   0.0220   0.00156  0.00174   0.00149   4.23e-3
##  7 2019-11-12  0.00775   0.0102    0.0197   0.00420 -0.00545   0.00700   1.97e-3
##  8 2019-11-13 -0.00209   0.000583 -0.00257 -0.00466 -0.000996  0.00327  -3.45e-5
##  9 2019-11-14 -0.00104   0.00394   0.00703  0.00492  0.00847   0.0175    6.51e-3
## 10 2019-11-15  0.00170   0.00348   0.0155   0.00860 -0.00198   0.0102    4.83e-3
## # ℹ 744 more rows
## # ℹ 483 more variables: ADI <dbl>, ADM <dbl>, ADP <dbl>, ADSK <dbl>, AEE <dbl>,
## #   AEP <dbl>, AES <dbl>, AFL <dbl>, AIG <dbl>, AIZ <dbl>, AJG <dbl>,
## #   AKAM <dbl>, ALB <dbl>, ALGN <dbl>, ALL <dbl>, ALLE <dbl>, AMAT <dbl>,
## #   AMCR <dbl>, AMD <dbl>, AME <dbl>, AMGN <dbl>, AMP <dbl>, AMT <dbl>,
## #   AMZN <dbl>, ANET <dbl>, ANSS <dbl>, AON <dbl>, AOS <dbl>, APA <dbl>,
## #   APD <dbl>, APH <dbl>, APTV <dbl>, ARE <dbl>, ATO <dbl>, AVB <dbl>, …
…
